{
  "hosts": {
    "db2": {
      "internal_alias": "node1",
      "index": "1",
      "role": "master",
      "role_change_detected_at": "never"
    },
    "db3": {
      "internal_alias": "node2",
      "index": "2",
      "role": "standby",
      "role_change_detected_at": "never"
    }
  },
  "last_check": {
    "epoch": "1",
    "timestamptz": "2019-02-12 17:38:55.0+0300",
    "dir": "1_2019_02_12T12_25_56_+0300"
  }
}
