{
  "project": "postila_ru",
  "name": "autovacuum_resource_usage",
  "checkId": "F008",
  "timestamptz": "2019-02-12 17:38:46.0+0300",
  "dependencies": {
    "null": "null"
  },
  "last_nodes_json": {
    "hosts": {
      "db2": {
        "internal_alias": "node1",
        "index": "1",
        "role": "master",
        "role_change_detected_at": "never"
      },
      "db3": {
        "internal_alias": "node2",
        "index": "2",
        "role": "standby",
        "role_change_detected_at": "never"
      }
    },
    "last_check": {
      "epoch": "1",
      "timestamptz": "2019-02-12 17:38:46.0+0300",
      "dir": "1_2019_02_12T12_25_56_+0300"
    }
  },
  "results": {
    "db2": {
      "data": {
        "autovacuum_max_workers": {
          "name": "autovacuum_max_workers",
          "setting": "10",
          "unit": null,
          "category": "Autovacuum",
          "short_desc": "Sets the maximum number of simultaneously running autovacuum worker processes.",
          "extra_desc": null,
          "context": "postmaster",
          "vartype": "integer",
          "source": "configuration file",
          "min_val": "1",
          "max_val": "262143",
          "enumvals": null,
          "boot_val": "3",
          "reset_val": "10",
          "sourcefile": "/etc/postgresql/9.6/main/postgresql.conf",
          "sourceline": 504,
          "pending_restart": false
        },
        "autovacuum_work_mem": {
          "name": "autovacuum_work_mem",
          "setting": "-1",
          "unit": "kB",
          "category": "Resource Usage / Memory",
          "short_desc": "Sets the maximum memory to be used by each autovacuum worker process.",
          "extra_desc": null,
          "context": "sighup",
          "vartype": "integer",
          "source": "default",
          "min_val": "-1",
          "max_val": "2147483647",
          "enumvals": null,
          "boot_val": "-1",
          "reset_val": "-1",
          "sourcefile": null,
          "sourceline": null,
          "pending_restart": false
        },
        "log_autovacuum_min_duration": {
          "name": "log_autovacuum_min_duration",
          "setting": "0",
          "unit": "ms",
          "category": "Reporting and Logging / What to Log",
          "short_desc": "Sets the minimum execution time above which autovacuum actions will be logged.",
          "extra_desc": "Zero prints all actions. -1 turns autovacuum logging off.",
          "context": "sighup",
          "vartype": "integer",
          "source": "configuration file",
          "min_val": "-1",
          "max_val": "2147483647",
          "enumvals": null,
          "boot_val": "-1",
          "reset_val": "0",
          "sourcefile": "/etc/postgresql/9.6/main/postgresql.conf",
          "sourceline": 500,
          "pending_restart": false
        },
        "maintenance_work_mem": {
          "name": "maintenance_work_mem",
          "setting": "2097152",
          "unit": "kB",
          "category": "Resource Usage / Memory",
          "short_desc": "Sets the maximum memory to be used for maintenance operations.",
          "extra_desc": "This includes operations such as VACUUM and CREATE INDEX.",
          "context": "user",
          "vartype": "integer",
          "source": "configuration file",
          "min_val": "1024",
          "max_val": "2147483647",
          "enumvals": null,
          "boot_val": "65536",
          "reset_val": "2097152",
          "sourcefile": "/etc/postgresql/9.6/main/postgresql.conf",
          "sourceline": 123,
          "pending_restart": false
        },
        "max_connections": {
          "name": "max_connections",
          "setting": "1000",
          "unit": null,
          "category": "Connections and Authentication / Connection Settings",
          "short_desc": "Sets the maximum number of concurrent connections.",
          "extra_desc": null,
          "context": "postmaster",
          "vartype": "integer",
          "source": "configuration file",
          "min_val": "1",
          "max_val": "262143",
          "enumvals": null,
          "boot_val": "100",
          "reset_val": "1000",
          "sourcefile": "/etc/postgresql/9.6/main/postgresql.conf",
          "sourceline": 64,
          "pending_restart": false
        },
        "shared_buffers": {
          "name": "shared_buffers",
          "setting": "2097152",
          "unit": "8kB",
          "category": "Resource Usage / Memory",
          "short_desc": "Sets the number of shared memory buffers used by the server.",
          "extra_desc": null,
          "context": "postmaster",
          "vartype": "integer",
          "source": "configuration file",
          "min_val": "16",
          "max_val": "1073741823",
          "enumvals": null,
          "boot_val": "1024",
          "reset_val": "2097152",
          "sourcefile": "/etc/postgresql/9.6/main/postgresql.conf",
          "sourceline": 113,
          "pending_restart": false
        },
        "work_mem": {
          "name": "work_mem",
          "setting": "65536",
          "unit": "kB",
          "category": "Resource Usage / Memory",
          "short_desc": "Sets the maximum memory to be used for query workspaces.",
          "extra_desc": "This much memory can be used by each internal sort operation and hash table before switching to temporary disk files.",
          "context": "user",
          "vartype": "integer",
          "source": "configuration file",
          "min_val": "64",
          "max_val": "2147483647",
          "enumvals": null,
          "boot_val": "4096",
          "reset_val": "65536",
          "sourcefile": "/var/lib/postgresql/9.6/main/postgresql.auto.conf",
          "sourceline": 3,
          "pending_restart": false
        }
      },
      "nodes.json": {
        "hosts": {
          "db2": {
            "internal_alias": "node1",
            "index": "1",
            "role": "master",
            "role_change_detected_at": "never"
          },
          "db3": {
            "internal_alias": "node2",
            "index": "2",
            "role": "standby",
            "role_change_detected_at": "never"
          }
        },
        "last_check": {
          "epoch": "1",
          "timestamptz": "2019-02-12 17:38:46.0+0300",
          "dir": "1_2019_02_12T12_25_56_+0300"
        }
      }
    },
    "db3": {
      "data": {
        "autovacuum_max_workers": {
          "name": "autovacuum_max_workers",
          "setting": "10",
          "unit": null,
          "category": "Autovacuum",
          "short_desc": "Sets the maximum number of simultaneously running autovacuum worker processes.",
          "extra_desc": null,
          "context": "postmaster",
          "vartype": "integer",
          "source": "configuration file",
          "min_val": "1",
          "max_val": "262143",
          "enumvals": null,
          "boot_val": "3",
          "reset_val": "10",
          "sourcefile": "/etc/postgresql/9.6/main/postgresql.conf",
          "sourceline": 504,
          "pending_restart": false
        },
        "autovacuum_work_mem": {
          "name": "autovacuum_work_mem",
          "setting": "-1",
          "unit": "kB",
          "category": "Resource Usage / Memory",
          "short_desc": "Sets the maximum memory to be used by each autovacuum worker process.",
          "extra_desc": null,
          "context": "sighup",
          "vartype": "integer",
          "source": "default",
          "min_val": "-1",
          "max_val": "2147483647",
          "enumvals": null,
          "boot_val": "-1",
          "reset_val": "-1",
          "sourcefile": null,
          "sourceline": null,
          "pending_restart": false
        },
        "log_autovacuum_min_duration": {
          "name": "log_autovacuum_min_duration",
          "setting": "0",
          "unit": "ms",
          "category": "Reporting and Logging / What to Log",
          "short_desc": "Sets the minimum execution time above which autovacuum actions will be logged.",
          "extra_desc": "Zero prints all actions. -1 turns autovacuum logging off.",
          "context": "sighup",
          "vartype": "integer",
          "source": "configuration file",
          "min_val": "-1",
          "max_val": "2147483647",
          "enumvals": null,
          "boot_val": "-1",
          "reset_val": "0",
          "sourcefile": "/etc/postgresql/9.6/main/postgresql.conf",
          "sourceline": 500,
          "pending_restart": false
        },
        "maintenance_work_mem": {
          "name": "maintenance_work_mem",
          "setting": "2097152",
          "unit": "kB",
          "category": "Resource Usage / Memory",
          "short_desc": "Sets the maximum memory to be used for maintenance operations.",
          "extra_desc": "This includes operations such as VACUUM and CREATE INDEX.",
          "context": "user",
          "vartype": "integer",
          "source": "configuration file",
          "min_val": "1024",
          "max_val": "2147483647",
          "enumvals": null,
          "boot_val": "65536",
          "reset_val": "2097152",
          "sourcefile": "/etc/postgresql/9.6/main/postgresql.conf",
          "sourceline": 123,
          "pending_restart": false
        },
        "max_connections": {
          "name": "max_connections",
          "setting": "1000",
          "unit": null,
          "category": "Connections and Authentication / Connection Settings",
          "short_desc": "Sets the maximum number of concurrent connections.",
          "extra_desc": null,
          "context": "postmaster",
          "vartype": "integer",
          "source": "configuration file",
          "min_val": "1",
          "max_val": "262143",
          "enumvals": null,
          "boot_val": "100",
          "reset_val": "1000",
          "sourcefile": "/etc/postgresql/9.6/main/postgresql.conf",
          "sourceline": 64,
          "pending_restart": false
        },
        "shared_buffers": {
          "name": "shared_buffers",
          "setting": "2097152",
          "unit": "8kB",
          "category": "Resource Usage / Memory",
          "short_desc": "Sets the number of shared memory buffers used by the server.",
          "extra_desc": null,
          "context": "postmaster",
          "vartype": "integer",
          "source": "configuration file",
          "min_val": "16",
          "max_val": "1073741823",
          "enumvals": null,
          "boot_val": "1024",
          "reset_val": "2097152",
          "sourcefile": "/etc/postgresql/9.6/main/postgresql.conf",
          "sourceline": 113,
          "pending_restart": false
        },
        "work_mem": {
          "name": "work_mem",
          "setting": "131072",
          "unit": "kB",
          "category": "Resource Usage / Memory",
          "short_desc": "Sets the maximum memory to be used for query workspaces.",
          "extra_desc": "This much memory can be used by each internal sort operation and hash table before switching to temporary disk files.",
          "context": "user",
          "vartype": "integer",
          "source": "configuration file",
          "min_val": "64",
          "max_val": "2147483647",
          "enumvals": null,
          "boot_val": "4096",
          "reset_val": "131072",
          "sourcefile": "/etc/postgresql/9.6/main/postgresql.conf",
          "sourceline": 122,
          "pending_restart": false
        }
      },
      "nodes.json": {
        "hosts": {
          "db2": {
            "internal_alias": "node1",
            "index": "1",
            "role": "master",
            "role_change_detected_at": "never"
          },
          "db3": {
            "internal_alias": "node2",
            "index": "2",
            "role": "standby",
            "role_change_detected_at": "never"
          }
        },
        "last_check": {
          "epoch": "1",
          "timestamptz": "2019-02-12 17:37:54.0+0300",
          "dir": "1_2019_02_12T12_25_56_+0300"
        }
      }
    }
  }
}
